if($submit){
for($i=0:$i<$count;$i++){
$sql="UPDATE $table_name SET name='$name[$i]',lastname='$lastname[$i]' WHERE id='$id[$i]'";
$result=mysql_query($sql);
}
}

		$update=mysqli_query($conn, "update nilai_uts set siswa='$_POST[siswa]',mapel='$_POST[mapel]',nilai='$_POST[nilai]' where id='$id'");
		if($update)
		{
			
		}
		else{
			echo "gagal";
		}
		
if($submit){
for($i=0:$i<$count;$i++){
$sql=mysqli_query($conn, "UPDATE $table_name SET name='$name[$i]',lastname='$lastname[$i]' WHERE id='$id[$i]'";
$result=mysqli_query($sql);
}
}